190527_LLQ501_01_00007
190509_LLQ201_01_00092
190502_NVL601_01_00449
190521_NVL701_01_00191
190502_NVL601_01_00265
190703_NVL101_2_00645
LBB201_2019_07_03_18_01_00_000376
190511_LLQ101_01_00105
190527_LLQ501_01_00198
190509_LLQ201_01_00378
LLQ501_2019_07_16_19_22_22_00082
190509_LLQ201_01_00250
190521_NVL301_01_00178
190516_LBB301_02_00004
190703_NVL101_2_00963
190527_LLQ501_01_00165
LBB201_2019_07_03_18_01_00_000481
190509_LLQ101_04_00003
190511_LLQ101_01_00178
190703_NVL101_2_00961
190502_NVL601_01_00260
190527_LLQ501_01_00019
190502_NVL601_01_00542
190527_LLQ501_01_00196
190511_LLQ101_01_00028
190511_LLQ201_01_00012
190527_LLQ501_01_00159
190509_LLQ201_01_00100
190703_NVL101_2_00643
190703_NVL101_2_00935
190511_LLQ201_01_00044
LBB201_2019_07_03_18_01_00_002536
LLQ501_2019_07_16_19_22_22_00502
190703_NVL101_2_01504
NVL101_2019_07_05_15_54_48_19IDs_000691
LLQ301_2019_05_11_16_27_15_26IDs_000676
190521_NVL701_01_00029
190703_NVL101_2_00919
190502_NVL601_01_00465
190502_NVL601_01_00618
LBB301_2019_07_03_18_01_00_21IDs_000511
LBB301_2019_07_03_18_01_00_21IDs_002911
190521_NVL101_01_00021
LBB301_2019_07_03_18_01_00_21IDs_001561
LLQ501_2019_07_16_19_22_22_00235
LLQ301_2019_05_11_16_27_15_26IDs_000841
190703_NVL101_2_00764
LLQ301_2019_05_11_16_27_15_26IDs_001021
190511_LLQ101_01_00049
LLQ501_2019_07_16_19_22_22_00068
190509_NVL601_01_00317
LBB301_2019_07_03_18_01_00_21IDs_002656
190703_NVL101_2_00890
LLQ501_2019_07_16_19_22_22_00005
LLQ501_2019_07_16_19_22_22_00001
LBB201_2019_07_03_18_01_00_001321
LBB201_2019_07_03_18_01_00_002551
LBB301_2019_07_03_18_01_00_21IDs_000121
LLQ501_2019_07_16_19_22_22_00992
NVL101_2019_07_05_15_54_48_19IDs_000781
190509_LLQ201_01_00094
190527_LLQ501_01_00025
190516_LBB301_02_00289
190703_NVL101_2_00414
190502_NVL601_01_00416
190511_LLQ301_01_00069
190521_NVL301_01_00350
LBB201_2019_07_03_18_01_00_003571
LLQ501_2019_05_11_16_27_15_19IDs_000256
190511_LLQ101_01_00026
190511_LLQ101_01_00062
LBB201_2019_07_03_18_01_00_002566
190516_LBB201_01_00005
190703_NVL101_2_00564
LLQ301_2019_05_11_16_27_15_26IDs_001036
NVL101_2019_07_05_15_54_48_19IDs_000046
LLQ501_2019_07_16_19_22_22_00467
LBB301_2019_07_03_18_01_00_21IDs_002026
190509_LLQ201_01_00261
190521_NVL701_01_00009
190509_NVL601_01_00116
190511_LLQ101_01_00016
190521_NVL701_01_00189
LBB301_2019_07_03_18_01_00_21IDs_001966
LBB301_2019_07_03_18_01_00_21IDs_001516
190511_LLQ501_01_00034
LBB201_2019_07_03_18_01_00_003586
190703_NVL101_2_01521
190521_NVL101_01_00007
190703_NVL101_2_00765
LLQ501_2019_07_16_19_22_22_01638
LLQ501_2019_07_16_19_22_22_02144
190527_LLQ501_01_00072
190509_LLQ201_01_00295
190502_NVL601_01_00606
LBB301_2019_07_03_18_01_00_21IDs_001096
190511_LLQ101_01_00265
190502_NVL601_01_00544
190511_LLQ301_01_00028
LLQ501_2019_07_16_19_22_22_00129
190502_NVL601_01_00391
LLQ301_2019_05_11_16_27_15_26IDs_000931
190521_NVL101_01_00028
190502_NVL601_01_00015
LBB201_2019_07_03_18_01_00_000811
190703_NVL101_2_01346
190516_LBB301_01_00021
190703_NVL101_2_00705
190509_NVL601_01_00010
190502_NVL601_01_00030
190703_NVL101_2_00874
LBB201_2019_07_03_18_01_00_002656
190527_LLQ501_01_00009
190703_NVL101_2_00713
190521_NVL101_01_00010
190703_NVL101_2_00886
LBB201_2019_07_03_18_01_00_003196
LBB301_2019_07_03_18_01_00_21IDs_000406
190509_NVL601_01_00044
190511_LLQ101_01_00166
190511_LLQ201_01_00021
LBB201_2019_07_03_18_01_00_000151
LLQ501_2019_07_16_19_22_22_00946
NVL101_2019_07_05_15_54_48_19IDs_000226
190703_NVL101_2_00962
NVL101_2019_07_05_15_54_48_19IDs_001111
LLQ501_2019_05_11_16_27_15_19IDs_000301
190509_NVL601_01_00009
LLQ501_2019_07_16_19_22_22_00486
LBB201_2019_07_03_18_01_00_000286
190703_NVL101_2_01428
190502_NVL601_01_00366
190521_NVL701_01_00032
190516_LBB301_02_00123
190521_NVL701_01_00112
190502_NVL601_01_00010
190521_NVL301_01_00346
190521_NVL301_01_00009
LBB201_2019_07_03_18_01_00_003511
190703_NVL101_2_00679
190511_LLQ101_01_00007
190502_NVL601_01_00418
LLQ501_2019_07_16_19_22_22_00107
190509_NVL601_01_00251
LLQ501_2019_07_16_19_22_22_00042
190511_LLQ101_01_00189
190703_NVL101_2_01915
190509_LLQ201_01_00265
190521_NVL701_01_00039
LLQ501_2019_07_16_19_22_22_00067
190509_NVL601_01_00313
LLQ501_2019_05_11_16_27_15_19IDs_000076
190527_LLQ501_01_00068
LBB301_2019_07_03_18_01_00_21IDs_000211
190502_NVL601_01_00698
190509_LLQ201_01_00134
LLQ501_2019_07_16_19_22_22_00151
LLQ501_2019_07_16_19_22_22_00174
190703_NVL101_2_01052
190703_NVL101_2_00719
190521_NVL301_01_00267
190509_NVL601_01_00221
LBB301_2019_07_03_18_01_00_21IDs_003421
190511_LLQ101_01_00072
190527_LLQ501_01_00174
190502_NVL601_01_00696
190509_LLQ201_01_00277
LLQ301_2019_05_11_16_27_15_26IDs_001186
190502_NVL601_01_00379
LBB201_2019_07_03_18_01_00_001876
190703_NVL101_2_01361
190703_NVL101_2_00478
190527_LLQ501_01_00114
LLQ301_2019_05_11_16_27_15_26IDs_001081
190511_LLQ101_01_00041
LBB301_2019_07_03_18_01_00_21IDs_001831
190516_LBB301_02_00087
190703_NVL101_2_01359
190703_NVL101_2_01435
190511_LLQ101_01_00104
190703_NVL101_2_01860
190502_NVL601_01_00397
LBB301_2019_07_03_18_01_00_21IDs_002581
190511_LLQ101_01_00052
190703_NVL101_2_01350
190511_LLQ501_01_00051
190703_NVL101_2_01187
LBB201_2019_07_03_18_01_00_000601
190509_LLQ201_01_00015
190511_LLQ101_01_00131
190527_LLQ501_01_00013
LBB301_2019_07_03_18_01_00_21IDs_001006
190516_LBB301_02_00234
190703_NVL101_2_00430
LLQ501_2019_07_16_19_22_22_00176
190703_NVL101_2_01244
190703_NVL101_2_01177
190527_LLQ501_01_00200
190509_NVL601_01_00306
190703_NVL101_2_00627
190703_NVL101_2_00724
190511_LLQ101_01_00267
LBB301_2019_07_03_18_01_00_21IDs_002071
190527_LLQ501_01_00008
LBB301_2019_07_03_18_01_00_21IDs_001201
190511_LLQ201_01_00018
190511_LLQ101_01_00034
190703_NVL101_2_00434
LLQ501_2019_07_16_19_22_22_00104
190703_NVL101_2_00649
LLQ501_2019_07_16_19_22_22_00496
190502_NVL601_01_00599
190511_LLQ101_01_00298
LLQ501_2019_07_16_19_22_22_00141
190516_LBB301_02_00009
LLQ501_2019_07_16_19_22_22_00251
LLQ301_2019_05_11_16_27_15_26IDs_000526
LLQ501_2019_07_16_19_22_22_00512
LLQ501_2019_07_16_19_22_22_01083
190511_LLQ101_01_00006
190502_NVL601_01_00532
190502_NVL601_01_00371
LBB201_2019_07_03_18_01_00_001981
190511_LLQ101_01_00025
190703_NVL101_2_00920
190521_NVL701_01_00071
190516_LBB201_01_00032
NVL101_2019_07_05_15_54_48_19IDs_000946
190511_LLQ101_01_00135
LLQ501_2019_05_11_16_27_15_19IDs_000046
LBB201_2019_07_03_18_01_00_001846
190703_NVL101_2_01661
LBB201_2019_07_03_18_01_00_002746
LLQ501_2019_07_16_19_22_22_00374
LLQ301_2019_05_11_16_27_15_26IDs_000346
190521_NVL701_01_00199
190703_NVL101_2_00528
190703_NVL101_2_00936
190502_NVL601_01_00205
190511_LLQ101_01_00015
LBB301_2019_07_03_18_01_00_21IDs_000361
190511_LLQ501_01_00019
LBB201_2019_07_03_18_01_00_002926
LLQ501_2019_07_16_19_22_22_01945
LBB301_2019_07_03_18_01_00_21IDs_001816
LBB201_2019_07_03_18_01_00_000946
190703_NVL101_2_01858
190509_LLQ201_01_00007
190502_NVL601_01_00014
LLQ301_2019_05_11_16_27_15_26IDs_000721
LLQ501_2019_07_16_19_22_22_00262
LLQ501_2019_07_16_19_22_22_00519
190502_NVL601_01_00370
LLQ501_2019_07_16_19_22_22_00089
190502_NVL601_01_00075
LLQ501_2019_07_16_19_22_22_00370
190703_NVL101_2_01179
190521_NVL701_01_00197
190703_NVL101_2_00610
190511_LLQ201_01_00052
190703_NVL101_2_00489
190502_NVL601_01_00429
LBB301_2019_07_03_18_01_00_21IDs_000931
190703_NVL101_2_01370
LLQ501_2019_07_16_19_22_22_00190
190703_NVL101_2_00401
190703_NVL101_2_01391
LLQ301_2019_05_11_16_27_15_26IDs_000451
LBB301_2019_07_03_18_01_00_21IDs_000316
190502_NVL601_01_00005
LLQ501_2019_07_16_19_22_22_00833
190511_LLQ101_01_00053
LLQ501_2019_07_16_19_22_22_00511
190502_NVL601_01_00541
LBB201_2019_07_03_18_01_00_001726
190516_LBB301_02_00007
190521_NVL701_01_00035
190502_NVL601_01_00071
LBB201_2019_07_03_18_01_00_000001
LBB301_2019_07_03_18_01_00_21IDs_003256
LBB301_2019_07_03_18_01_00_21IDs_000136
190703_NVL101_2_00706
190511_LLQ101_01_00017
190516_LBB301_02_00019
LLQ501_2019_07_16_19_22_22_00726
LBB301_2019_07_03_18_01_00_21IDs_000046
LBB301_2019_07_03_18_01_00_21IDs_000886
LBB301_2019_07_03_18_01_00_21IDs_001741
190511_LLQ501_01_00009
190516_LBB201_01_00116
LLQ501_2019_07_16_19_22_22_00126
190511_LLQ501_01_00040
LBB201_2019_07_03_18_01_00_001711
LBB201_2019_07_03_18_01_00_001516
LLQ501_2019_07_16_19_22_22_00434
190521_NVL301_01_00318
190511_LLQ501_01_00030
LBB301_2019_07_03_18_01_00_21IDs_000526
LLQ501_2019_07_16_19_22_22_00750
190502_NVL601_01_00659
LBB301_2019_07_03_18_01_00_21IDs_003121
190511_LLQ101_01_00194
190516_LBB301_02_00020
190509_NVL601_01_00110
190511_LLQ101_01_00266
190703_NVL101_2_00648
190703_NVL101_2_00905
LBB201_2019_07_03_18_01_00_000061
190527_LLQ501_01_00162
190502_NVL601_01_00191
LLQ501_2019_07_16_19_22_22_01851
190703_NVL101_2_00895
LBB201_2019_07_03_18_01_00_003211
190511_LLQ101_01_00033
LBB301_2019_07_03_18_01_00_21IDs_002536
LLQ501_2019_07_16_19_22_22_00088
LBB201_2019_07_03_18_01_00_000181
LLQ301_2019_05_11_16_27_15_26IDs_000631
LLQ501_2019_07_16_19_22_22_01068
190509_NVL601_01_00284
190703_NVL101_2_00636
190509_LLQ201_01_00013
190509_NVL601_01_00226
190703_NVL101_2_01246
LBB201_2019_07_03_18_01_00_001066
LLQ501_2019_07_16_19_22_22_01041
LBB201_2019_07_03_18_01_00_001291
LLQ501_2019_07_16_19_22_22_00524
LBB201_2019_07_03_18_01_00_002371
LBB301_2019_07_03_18_01_00_21IDs_001591
NVL101_2019_07_05_15_54_48_19IDs_000076
LLQ501_2019_07_16_19_22_22_00560
190703_NVL101_2_01393
190502_NVL601_01_00399
LBB201_2019_07_03_18_01_00_002206
190527_LLQ501_01_00195
190703_NVL101_2_01538
190511_LLQ501_01_00036
LLQ301_2019_05_11_16_27_15_26IDs_000961
LBB301_2019_07_03_18_01_00_21IDs_000946
190703_NVL101_2_00570
LLQ501_2019_07_16_19_22_22_00550
LLQ501_2019_07_16_19_22_22_00369
190527_LLQ501_01_00049
190703_NVL101_2_01910
190509_NVL601_01_00320
190521_NVL301_01_00144
LBB301_2019_07_03_18_01_00_21IDs_001141
LLQ301_2019_05_11_16_27_15_26IDs_000916
190509_NVL601_01_00246
190502_NVL601_01_00053
190511_LLQ201_01_00017
LLQ501_2019_07_16_19_22_22_00043
190509_NVL601_01_00253
190509_NVL601_01_00322
LBB201_2019_07_03_18_01_00_001036
LBB201_2019_07_03_18_01_00_002971
190516_LBB201_01_00023
LLQ501_2019_07_16_19_22_22_00495
190502_NVL601_01_00642
LBB201_2019_07_03_18_01_00_003091
LBB301_2019_07_03_18_01_00_21IDs_001261
190511_LLQ301_01_00047
LLQ301_2019_05_11_16_27_15_26IDs_000976
190521_NVL101_01_00141
LBB301_2019_07_03_18_01_00_21IDs_000631
LLQ501_2019_07_16_19_22_22_00588
LBB201_2019_07_03_18_01_00_000661
190521_NVL101_01_00019
LBB201_2019_07_03_18_01_00_002821
190703_NVL101_2_01400
LBB201_2019_07_03_18_01_00_001786
190521_NVL301_01_00077
190511_LLQ101_01_00046
LLQ301_2019_05_11_16_27_15_26IDs_000316
190703_NVL101_2_00888
190509_NVL601_01_00321
NVL101_2019_07_05_15_54_48_19IDs_000211
190511_LLQ101_01_00149
190527_LLQ501_01_00153
190511_LLQ101_01_00262
190521_NVL101_01_00029
LLQ301_2019_05_11_16_27_15_26IDs_000271
190521_NVL101_01_00014
190521_NVL301_01_00083
190502_NVL601_01_00266
LBB301_2019_07_03_18_01_00_21IDs_002701
LBB201_2019_07_03_18_01_00_003526
LBB201_2019_07_03_18_01_00_002731
190527_LLQ501_01_00148
190521_NVL101_01_00040
190516_LBB301_02_00091
NVL101_2019_07_05_15_54_48_19IDs_000736
190703_NVL101_2_00425
190703_NVL101_2_00979
190502_NVL601_01_00073
NVL101_2019_07_05_15_54_48_19IDs_000091
190527_LLQ501_01_00016
190502_NVL601_01_00677
190521_NVL701_01_00110
190516_LBB201_01_00132
190511_LLQ201_01_00064
190703_NVL101_2_01356
190511_LLQ101_01_00054
190703_NVL101_2_01155
190703_NVL101_2_00913
LBB201_2019_07_03_18_01_00_000991
LBB301_2019_07_03_18_01_00_21IDs_003271
190502_NVL601_01_00038
190703_NVL101_2_01880
LBB301_2019_07_03_18_01_00_21IDs_002881
LLQ501_2019_07_16_19_22_22_00050
190502_NVL601_01_00417
190521_NVL701_01_00019
LBB201_2019_07_03_18_01_00_003256
190509_LLQ201_01_00030
190509_NVL601_01_00220
190703_NVL101_2_00520
190527_LLQ501_01_00043
190511_LLQ101_01_00145
190521_NVL701_01_00198
190527_LLQ501_01_00001
190509_NVL601_01_00033
190703_NVL101_2_01645
LLQ501_2019_05_11_16_27_15_19IDs_000271
LLQ501_2019_07_16_19_22_22_00420
190521_NVL301_01_00146
LLQ501_2019_07_16_19_22_22_00025
190527_LLQ501_01_00168
190521_NVL101_01_00002
190527_LLQ501_01_00116
190511_LLQ101_01_00009
LLQ501_2019_07_16_19_22_22_01069
190703_NVL101_2_00418
LBB301_2019_07_03_18_01_00_21IDs_001246
LBB201_2019_07_03_18_01_00_002086
190521_NVL701_01_00135
190511_LLQ501_01_00031
190509_NVL601_01_00039
190511_LLQ101_01_00252
190511_LLQ301_01_00041
190511_LLQ201_01_00050
NVL101_2019_07_05_15_54_48_19IDs_000421
190703_NVL101_2_01042
190509_LLQ201_01_00162
190511_LLQ201_01_00062
190703_NVL101_2_00498
190502_NVL601_01_00620
LBB201_2019_07_03_18_01_00_001606
190516_LBB301_01_00007
NVL101_2019_07_05_15_54_48_19IDs_000751
LLQ301_2019_05_11_16_27_15_26IDs_000106
190516_LBB301_02_00086
190516_LBB301_01_00004
190511_LLQ101_01_00249
190511_LLQ101_01_00168
190511_LLQ101_01_00132
LBB201_2019_07_03_18_01_00_001936
LBB201_2019_07_03_18_01_00_002491
LBB301_2019_07_03_18_01_00_21IDs_001786
190502_NVL601_01_00673
NVL101_2019_07_05_15_54_48_19IDs_000541
190516_LBB301_02_00239
LLQ501_2019_07_16_19_22_22_00070
190509_NVL601_01_00327
190509_LLQ201_01_00041
190511_LLQ101_01_00191
LLQ301_2019_05_11_16_27_15_26IDs_000751
190511_LLQ101_01_00264
LLQ501_2019_07_16_19_22_22_00453
190509_NVL601_01_00130
190521_NVL701_01_00015
LBB301_2019_07_03_18_01_00_21IDs_000481
LBB301_2019_07_03_18_01_00_21IDs_000226
LBB301_2019_07_03_18_01_00_21IDs_000331
190511_LLQ101_01_00144
190527_LLQ501_01_00069
190511_LLQ101_01_00086
190521_NVL701_01_00036
190511_LLQ101_01_00068
LBB301_2019_07_03_18_01_00_21IDs_001111
190521_NVL301_01_00153
190509_LLQ201_01_00111
LBB201_2019_07_03_18_01_00_001366
NVL101_2019_07_05_15_54_48_19IDs_000481
190703_NVL101_2_01040
190521_NVL701_01_00048
LBB301_2019_07_03_18_01_00_21IDs_002506
190521_NVL301_01_00100
190502_NVL601_01_00650
LBB301_2019_07_03_18_01_00_21IDs_002476
190509_LLQ201_01_00294
LBB201_2019_07_03_18_01_00_000241
LBB201_2019_07_03_18_01_00_002416
190703_NVL101_2_00768
LLQ501_2019_07_16_19_22_22_00569
LLQ501_2019_07_16_19_22_22_00790
LBB201_2019_07_03_18_01_00_002446
LLQ501_2019_07_16_19_22_22_00570
190509_NVL601_01_00254
190516_LBB301_02_00237
LBB301_2019_07_03_18_01_00_21IDs_000196
LLQ501_2019_07_16_19_22_22_01941
190703_NVL101_2_00766
190521_NVL301_01_00290
190509_NVL601_01_00167
190703_NVL101_2_01029
LLQ301_2019_05_11_16_27_15_26IDs_000301
190509_LLQ201_01_00034
190521_NVL701_01_00021
190511_LLQ101_01_00112
LBB301_2019_07_03_18_01_00_21IDs_002221
190509_NVL601_01_00230
190516_LBB301_02_00003
190527_LLQ501_01_00073
190502_NVL601_01_00424
190502_NVL601_01_00502
190703_NVL101_2_00675
190521_NVL101_01_00003
190521_NVL301_01_00315
190521_NVL701_01_00037
LLQ501_2019_07_16_19_22_22_00725
190521_NVL701_01_00006
190511_LLQ101_01_00116
190521_NVL701_01_00040
190502_NVL601_01_00638
190703_NVL101_2_01882
190521_NVL301_01_00266
LBB201_2019_07_03_18_01_00_002071
190511_LLQ101_01_00140
LLQ501_2019_05_11_16_27_15_19IDs_000436
LBB301_2019_07_03_18_01_00_21IDs_002101
LLQ501_2019_05_11_16_27_15_19IDs_000421
LLQ301_2019_05_11_16_27_15_26IDs_001006
190502_NVL601_01_00111
190509_LLQ201_01_00097
LBB201_2019_07_03_18_01_00_002686
LLQ501_2019_07_16_19_22_22_00155
190703_NVL101_2_01020
190521_NVL301_01_00003
LBB201_2019_07_03_18_01_00_002386
LLQ501_2019_05_11_16_27_15_19IDs_000166
LBB301_2019_07_03_18_01_00_21IDs_000466
190521_NVL301_01_00129
190703_NVL101_2_01019
190509_NVL601_01_00277
LLQ301_2019_05_11_16_27_15_26IDs_001111
LBB201_2019_07_03_18_01_00_001441
190502_NVL601_01_00032
190703_NVL101_2_01640
LBB201_2019_07_03_18_01_00_001186
190502_NVL601_01_00261
LBB201_2019_07_03_18_01_00_003076
190502_NVL601_01_00693
190502_NVL601_01_00086
190511_LLQ101_01_00040
LBB301_2019_07_03_18_01_00_21IDs_002371
190511_LLQ201_01_00065
LLQ301_2019_05_11_16_27_15_26IDs_000601
LLQ501_2019_05_11_16_27_15_19IDs_000496
190516_LBB301_02_00210
190703_NVL101_2_00933
LLQ501_2019_05_11_16_27_15_19IDs_000286
LBB301_2019_07_03_18_01_00_21IDs_000901
LBB201_2019_07_03_18_01_00_000076
190703_NVL101_2_01410
190509_LLQ201_01_00093
190521_NVL101_01_00009
190703_NVL101_2_00937
190703_NVL101_2_00553
190521_NVL101_01_00142
LLQ501_2019_07_16_19_22_22_01947
190527_LLQ501_01_00176
LLQ501_2019_07_16_19_22_22_00101
190703_NVL101_2_00795
LLQ501_2019_07_16_19_22_22_00516
190521_NVL301_01_00128
190516_LBB301_02_00005
190521_NVL701_01_00020
190527_LLQ501_01_00192
NVL101_2019_07_05_15_54_48_19IDs_000961
190511_LLQ101_01_00165
LBB301_2019_07_03_18_01_00_21IDs_003556
190703_NVL101_2_01643
190521_NVL301_01_00078
LLQ501_2019_07_16_19_22_22_00006
LLQ501_2019_07_16_19_22_22_00183
LLQ501_2019_05_11_16_27_15_19IDs_000406
LBB201_2019_07_03_18_01_00_001156
190527_LLQ501_01_00179
190511_LLQ101_01_00111
LLQ301_2019_05_11_16_27_15_26IDs_000376
LLQ501_2019_07_16_19_22_22_00367
190516_LBB301_01_00010
LLQ501_2019_07_16_19_22_22_00153
LLQ501_2019_05_11_16_27_15_19IDs_000511
LBB201_2019_07_03_18_01_00_003151
190502_NVL601_01_00676
LBB301_2019_07_03_18_01_00_21IDs_002686
190527_LLQ501_01_00026
LLQ501_2019_07_16_19_22_22_00128
LBB201_2019_07_03_18_01_00_002401
190521_NVL701_01_00031
LBB301_2019_07_03_18_01_00_21IDs_003541
LLQ501_2019_07_16_19_22_22_00231
LLQ501_2019_07_16_19_22_22_00988
190521_NVL701_01_00175
LLQ501_2019_07_16_19_22_22_00115
LLQ501_2019_07_16_19_22_22_00540
190527_LLQ501_01_00180
190516_LBB301_02_00196
190509_LLQ201_01_00276
LLQ501_2019_07_16_19_22_22_02145
LLQ301_2019_05_11_16_27_15_26IDs_000556
LBB201_2019_07_03_18_01_00_002116
LBB201_2019_07_03_18_01_00_001756
LLQ501_2019_07_16_19_22_22_00003
LLQ501_2019_07_16_19_22_22_00229
190521_NVL301_01_00085
LBB201_2019_07_03_18_01_00_002761
190502_NVL601_01_00048
190703_NVL101_2_00722
LBB301_2019_07_03_18_01_00_21IDs_001576
190527_LLQ501_01_00164
LBB201_2019_07_03_18_01_00_002881
190516_LBB301_02_00270
LLQ501_2019_07_16_19_22_22_00185
190509_NVL601_01_00023
LLQ301_2019_05_11_16_27_15_26IDs_000901
LBB301_2019_07_03_18_01_00_21IDs_002131
190521_NVL101_01_00024
LLQ301_2019_05_11_16_27_15_26IDs_001051
190703_NVL101_2_00711
NVL101_2019_07_05_15_54_48_19IDs_000886
LLQ501_2019_07_16_19_22_22_00568
190511_LLQ201_01_00061
190502_NVL601_01_00017
LBB301_2019_07_03_18_01_00_21IDs_003361
LBB201_2019_07_03_18_01_00_002041
LLQ501_2019_07_16_19_22_22_00760
190703_NVL101_2_00752
LLQ501_2019_07_16_19_22_22_00482
190703_NVL101_2_01349
190511_LLQ101_01_00193
190703_NVL101_2_00709
190527_LLQ501_01_00178
190511_LLQ101_01_00253
LBB201_2019_07_03_18_01_00_001951
190703_NVL101_2_00413
LBB301_2019_07_03_18_01_00_21IDs_001291
LLQ501_2019_07_16_19_22_22_00238
190521_NVL301_01_00010
190511_LLQ101_01_00195
190527_LLQ501_01_00047
LLQ501_2019_07_16_19_22_22_00745
190527_LLQ501_01_00170
190509_LLQ201_01_00306
LBB201_2019_07_03_18_01_00_003331
190502_NVL601_01_00648
190511_LLQ101_01_00085
LBB301_2019_07_03_18_01_00_21IDs_000016
190527_LLQ501_01_00160
190511_LLQ101_01_00292
LBB201_2019_07_03_18_01_00_000256
190509_NVL601_01_00293
LLQ501_2019_07_16_19_22_22_00991
LLQ501_2019_07_16_19_22_22_01102
190703_NVL101_2_01252
190509_LLQ201_01_00304
190521_NVL301_01_00317
190511_LLQ101_01_00060
LLQ501_2019_07_16_19_22_22_02095
190511_LLQ501_01_00014
190521_NVL701_01_00001
190502_NVL601_01_00531
190509_LLQ201_01_00112
LBB201_2019_07_03_18_01_00_000316
190509_NVL601_01_00012
LBB201_2019_07_03_18_01_00_000196
190527_LLQ501_01_00163
190703_NVL101_2_00497
LBB201_2019_07_03_18_01_00_001396
190511_LLQ101_01_00176
LLQ501_2019_07_16_19_22_22_00380
190521_NVL101_01_00025
190509_NVL601_01_00240
190703_NVL101_2_01041
LLQ301_2019_05_11_16_27_15_26IDs_000871
190703_NVL101_2_00500
LLQ501_2019_07_16_19_22_22_00484
LLQ301_2019_05_11_16_27_15_26IDs_000781
190703_NVL101_2_01198
190509_LLQ101_04_00002
LLQ301_2019_05_11_16_27_15_26IDs_000046
LLQ501_2019_07_16_19_22_22_01086
190527_LLQ501_01_00010
190521_NVL301_01_00118
190521_NVL701_01_00042
190511_LLQ101_01_00146
190703_NVL101_2_00518
LLQ501_2019_07_16_19_22_22_01782
190511_LLQ201_01_00051
190703_NVL101_2_00406
LBB301_2019_07_03_18_01_00_21IDs_003406
190521_NVL301_01_00006
190511_LLQ301_01_00076
190502_NVL601_01_00629
LLQ301_2019_05_11_16_27_15_26IDs_000151
190509_NVL601_01_00225
190511_LLQ101_01_00114
LBB301_2019_07_03_18_01_00_21IDs_000346
LLQ301_2019_05_11_16_27_15_26IDs_001156
190516_LBB301_02_00156
190521_NVL301_01_00349
190502_NVL601_01_00381
LLQ501_2019_05_11_16_27_15_19IDs_000226
190509_NVL601_01_00296
190509_NVL601_01_00228
190511_LLQ101_01_00130
190509_NVL601_01_00308
190703_NVL101_2_00796
LBB301_2019_07_03_18_01_00_21IDs_002866
190516_LBB301_02_00021
190511_LLQ301_01_00155
LBB301_2019_07_03_18_01_00_21IDs_001936
190527_LLQ501_01_00004
190516_LBB301_02_00142
LLQ501_2019_07_16_19_22_22_00113
LBB201_2019_07_03_18_01_00_002251
NVL101_2019_07_05_15_54_48_19IDs_000181
190502_NVL601_01_00733
190511_LLQ301_01_00026
190703_NVL101_2_00361
190521_NVL701_01_00070
LBB201_2019_07_03_18_01_00_002236
190703_NVL101_2_01902
LBB301_2019_07_03_18_01_00_21IDs_000241
190703_NVL101_2_01794
190521_NVL301_01_00116
190511_LLQ101_01_00023
LBB301_2019_07_03_18_01_00_21IDs_002716
190511_LLQ201_01_00002
190511_LLQ101_01_00272
LBB201_2019_07_03_18_01_00_002341
190509_LLQ201_01_00091
LLQ501_2019_07_16_19_22_22_00228
190703_NVL101_2_01190
190516_LBB201_01_00011
LLQ501_2019_07_16_19_22_22_00037
190521_NVL301_01_00011
190703_NVL101_2_00965
190527_LLQ501_01_00152
190509_LLQ101_04_00005
190509_LLQ201_01_00004
190527_LLQ501_01_00050
190703_NVL101_2_00488
190703_NVL101_2_00712
190521_NVL701_01_00026
190511_LLQ201_01_00043
190527_LLQ501_01_00055
LBB201_2019_07_03_18_01_00_001501
190509_LLQ201_01_00038
190502_NVL601_01_00551
LBB301_2019_07_03_18_01_00_21IDs_003586
190521_NVL101_01_00361
190502_NVL601_01_00464
190502_NVL601_01_00372
LLQ501_2019_07_16_19_22_22_00678
190521_NVL701_01_00194
190502_NVL601_01_00402
LBB301_2019_07_03_18_01_00_21IDs_002971
190502_NVL601_01_00438
NVL101_2019_07_05_15_54_48_19IDs_000106
190511_LLQ301_01_00156
LBB201_2019_07_03_18_01_00_001171
190703_NVL101_2_01362
LBB201_2019_07_03_18_01_00_001546
LLQ301_2019_05_11_16_27_15_26IDs_000061
190703_NVL101_2_01642
LBB201_2019_07_03_18_01_00_002506
LLQ501_2019_07_16_19_22_22_00040
190703_NVL101_2_00829
LBB201_2019_07_03_18_01_00_001111
LBB301_2019_07_03_18_01_00_21IDs_003241
LBB301_2019_07_03_18_01_00_21IDs_003511
LBB201_2019_07_03_18_01_00_000466
190516_LBB301_02_00045
LLQ301_2019_05_11_16_27_15_26IDs_000571
LBB201_2019_07_03_18_01_00_003046
LBB201_2019_07_03_18_01_00_003271
LBB201_2019_07_03_18_01_00_000541
190521_NVL101_01_00015
LBB301_2019_07_03_18_01_00_21IDs_001081
LLQ501_2019_07_16_19_22_22_00142
190502_NVL601_01_00087
190703_NVL101_2_01499
190502_NVL601_01_00390
LLQ501_2019_07_16_19_22_22_00483
LLQ301_2019_05_11_16_27_15_26IDs_000196
190511_LLQ301_01_00227
190502_NVL601_01_00423
LBB301_2019_07_03_18_01_00_21IDs_002431
190521_NVL301_01_00005
190521_NVL701_01_00008
190502_NVL601_01_00647
NVL101_2019_07_05_15_54_48_19IDs_000451
190509_LLQ201_01_00037
190703_NVL101_2_00560
190521_NVL701_01_00033
190511_LLQ501_01_00007
LLQ501_2019_07_16_19_22_22_00804
LBB201_2019_07_03_18_01_00_002896
LBB201_2019_07_03_18_01_00_002716
190703_NVL101_2_01378
NVL101_2019_07_05_15_54_48_19IDs_000796
190703_NVL101_2_00556
LLQ301_2019_05_11_16_27_15_26IDs_001126
NVL101_2019_07_05_15_54_48_19IDs_000061
190511_LLQ101_01_00031
LLQ501_2019_07_16_19_22_22_00079
190527_LLQ501_01_00173
190527_LLQ501_01_00194
LBB201_2019_07_03_18_01_00_000346
LLQ501_2019_07_16_19_22_22_01085
190502_NVL601_01_00630
190509_LLQ201_01_00381
190703_NVL101_2_01351
190511_LLQ101_01_00177
190511_LLQ501_01_00010
190516_LBB201_01_00031
190511_LLQ301_01_00142
190527_LLQ501_01_00175
190527_LLQ501_01_00113
190502_NVL601_01_00695
190703_NVL101_2_00535
190511_LLQ101_01_00190
LLQ501_2019_07_16_19_22_22_00667
LLQ501_2019_07_16_19_22_22_00459
LBB201_2019_07_03_18_01_00_002266
LLQ501_2019_07_16_19_22_22_00442
190502_NVL601_01_00419
190521_NVL701_01_00034
190511_LLQ101_01_00256
190511_LLQ501_01_00002
LLQ501_2019_07_16_19_22_22_00085
190509_NVL601_01_00109
190511_LLQ201_01_00080
LLQ501_2019_05_11_16_27_15_19IDs_000106
LBB301_2019_07_03_18_01_00_21IDs_002791
190516_LBB301_02_00268
LLQ501_2019_07_16_19_22_22_00180
LLQ501_2019_05_11_16_27_15_19IDs_000526
190509_NVL601_01_00219
190521_NVL701_01_00027
LBB301_2019_07_03_18_01_00_21IDs_000721
190703_NVL101_2_00929
190703_NVL101_2_01045
LBB201_2019_07_03_18_01_00_001771
190703_NVL101_2_00671
LBB301_2019_07_03_18_01_00_21IDs_003061
190509_LLQ101_04_00001
190509_NVL601_01_00007
190509_LLQ101_04_00004
LLQ501_2019_07_16_19_22_22_01427
LLQ301_2019_05_11_16_27_15_26IDs_000856
190502_NVL601_01_00587
190511_LLQ101_01_00277
190521_NVL301_01_00351
190509_NVL601_01_00239
190511_LLQ101_01_00143
190516_LBB201_01_00075
LLQ501_2019_07_16_19_22_22_00157
190703_NVL101_2_00404
190703_NVL101_2_00674
190703_NVL101_2_00754
LBB201_2019_07_03_18_01_00_001816
190511_LLQ101_01_00136
190703_NVL101_2_00399
LLQ301_2019_05_11_16_27_15_26IDs_000241
LBB301_2019_07_03_18_01_00_21IDs_002416
190511_LLQ301_01_00203
190703_NVL101_2_01392
190509_NVL601_01_00278
LBB301_2019_07_03_18_01_00_21IDs_003136
NVL101_2019_07_05_15_54_48_19IDs_000646
NVL101_2019_07_05_15_54_48_19IDs_000916
190502_NVL601_01_00444
190502_NVL601_01_00362
190521_NVL101_01_00011
190527_LLQ501_01_00052
190509_NVL601_01_00035
190527_LLQ501_01_00115
190509_LLQ201_01_00367
190511_LLQ101_01_00113
190527_LLQ501_01_00201
LLQ501_2019_07_16_19_22_22_00137
190521_NVL701_01_00018
190502_NVL601_01_00206
190511_LLQ501_01_00044
190703_NVL101_2_01438
190516_LBB301_02_00036
190516_LBB301_02_00089
LLQ501_2019_07_16_19_22_22_00109
190511_LLQ101_01_00044
LBB301_2019_07_03_18_01_00_21IDs_000856
190509_NVL601_01_00270
190511_LLQ101_01_00063
NVL101_2019_07_05_15_54_48_19IDs_000136
LBB301_2019_07_03_18_01_00_21IDs_000436
190703_NVL101_2_01389
190521_NVL701_01_00016
LLQ501_2019_05_11_16_27_15_19IDs_000316
190511_LLQ101_01_00141
190502_NVL601_01_00364
190516_LBB301_02_00025
190521_NVL101_01_00065
LBB201_2019_07_03_18_01_00_002701
LBB201_2019_07_03_18_01_00_002581
190521_NVL701_01_00190
190527_LLQ501_01_00071
190516_LBB301_02_00023
190527_LLQ501_01_00156
190703_NVL101_2_01371
LLQ501_2019_07_16_19_22_22_00824
LLQ501_2019_07_16_19_22_22_00136
190521_NVL701_01_00047
LLQ301_2019_05_11_16_27_15_26IDs_000001
190516_LBB201_01_00021
190502_NVL601_01_00643
190521_NVL301_01_00103
LBB301_2019_07_03_18_01_00_21IDs_003301
LBB301_2019_07_03_18_01_00_21IDs_001171
LBB301_2019_07_03_18_01_00_21IDs_000646
190527_LLQ501_01_00150
190703_NVL101_2_00485
190509_NVL601_01_00036
LBB301_2019_07_03_18_01_00_21IDs_000286
190511_LLQ301_01_00256
190516_LBB201_01_00077
190509_NVL601_01_00014
190521_NVL701_01_00172
LLQ501_2019_07_16_19_22_22_02090
190521_NVL301_01_00216
190521_NVL701_01_00007
LBB201_2019_07_03_18_01_00_000796
LBB301_2019_07_03_18_01_00_21IDs_000301
190511_LLQ201_01_00014
NVL101_2019_07_05_15_54_48_19IDs_000391
190703_NVL101_2_00717
190521_NVL701_01_00011
190509_NVL601_01_00169
NVL101_2019_07_05_15_54_48_19IDs_001096
190521_NVL701_01_00076
190509_NVL601_01_00307
190502_NVL601_01_00012
190509_NVL601_01_00315
LLQ501_2019_07_16_19_22_22_00095
LLQ501_2019_05_11_16_27_15_19IDs_000031
190502_NVL601_01_00619
LLQ501_2019_07_16_19_22_22_00514
190521_NVL701_01_00138
LBB301_2019_07_03_18_01_00_21IDs_003076
LBB201_2019_07_03_18_01_00_000856
LBB301_2019_07_03_18_01_00_21IDs_001921
190521_NVL701_01_00114
190509_NVL601_01_00294
190511_LLQ501_01_00041
190521_NVL301_01_00313
LBB201_2019_07_03_18_01_00_002641
190703_NVL101_2_00763
LLQ501_2019_07_16_19_22_22_00546
190703_NVL101_2_00499
190511_LLQ501_01_00003
LBB301_2019_07_03_18_01_00_21IDs_003001
LBB301_2019_07_03_18_01_00_21IDs_000181
190516_LBB201_01_00007
LLQ501_2019_07_16_19_22_22_00186
190703_NVL101_2_00904
LBB301_2019_07_03_18_01_00_21IDs_000796
LLQ501_2019_07_16_19_22_22_00744
LLQ501_2019_07_16_19_22_22_00521
190511_LLQ501_01_00050
190511_LLQ201_01_00013
190511_LLQ101_01_00024
LBB301_2019_07_03_18_01_00_21IDs_002341
LBB201_2019_07_03_18_01_00_003166
LLQ301_2019_05_11_16_27_15_26IDs_000121
190502_NVL601_01_00091
LLQ501_2019_07_16_19_22_22_00832
190703_NVL101_2_00909
190509_LLQ201_01_00113
LBB301_2019_07_03_18_01_00_21IDs_002446
NVL101_2019_07_05_15_54_48_19IDs_000586
LBB201_2019_07_03_18_01_00_003556
LBB201_2019_07_03_18_01_00_003436
190509_NVL601_01_00016
190703_NVL101_2_00943
190502_NVL601_01_00503
LBB201_2019_07_03_18_01_00_000916
LBB301_2019_07_03_18_01_00_21IDs_002326
190516_LBB201_01_00053
190511_LLQ201_01_00086
LLQ501_2019_07_16_19_22_22_01901
190521_NVL301_01_00215
190511_LLQ101_01_00187
LLQ501_2019_07_16_19_22_22_00132
LBB301_2019_07_03_18_01_00_21IDs_002731
LBB201_2019_07_03_18_01_00_003496
LBB301_2019_07_03_18_01_00_21IDs_002761
LBB301_2019_07_03_18_01_00_21IDs_001891
LBB201_2019_07_03_18_01_00_000646
190511_LLQ101_01_00126
LLQ301_2019_05_11_16_27_15_26IDs_000811
190703_NVL101_2_01358
LBB301_2019_07_03_18_01_00_21IDs_001366
190521_NVL301_01_00081
190521_NVL101_01_00013
190703_NVL101_2_01647
190703_NVL101_2_01192
190509_LLQ201_01_00251
190502_NVL601_01_00389
190703_NVL101_2_00548
LLQ501_2019_07_16_19_22_22_00055
190527_LLQ501_01_00155
190511_LLQ201_01_00049
LBB301_2019_07_03_18_01_00_21IDs_003376
190521_NVL701_01_00174
190509_LLQ101_04_00006
LBB301_2019_07_03_18_01_00_21IDs_002146
190516_LBB301_02_00244
190703_NVL101_2_01628
LLQ501_2019_05_11_16_27_15_19IDs_000121
190502_NVL601_01_00543
LBB301_2019_07_03_18_01_00_21IDs_001876
190703_NVL101_2_00728
190703_NVL101_2_01248
LBB201_2019_07_03_18_01_00_003031
LBB301_2019_07_03_18_01_00_21IDs_001216
190703_NVL101_2_00806
190511_LLQ301_01_00001
190509_NVL601_01_00248
LLQ501_2019_07_16_19_22_22_00623
190703_NVL101_2_00571
190511_LLQ101_01_00179
190509_LLQ201_01_00187
190511_LLQ101_01_00100
LBB301_2019_07_03_18_01_00_21IDs_003346
LLQ501_2019_05_11_16_27_15_19IDs_000091
190521_NVL701_01_00010
190527_LLQ501_01_00005
LLQ301_2019_05_11_16_27_15_26IDs_000211
NVL101_2019_07_05_15_54_48_19IDs_000301
190502_NVL601_01_00730
190703_NVL101_2_00938
190511_LLQ301_01_00049
LLQ301_2019_05_11_16_27_15_26IDs_000091
LLQ501_2019_05_11_16_27_15_19IDs_000481
190502_NVL601_01_00549
190502_NVL601_01_00367
190703_NVL101_2_01429
190511_LLQ501_01_00039
LBB301_2019_07_03_18_01_00_21IDs_002011
LLQ301_2019_05_11_16_27_15_26IDs_001171
190502_NVL601_01_00033
LBB201_2019_07_03_18_01_00_000391
190703_NVL101_2_01200
190703_NVL101_2_00931
190509_NVL601_01_00247
LBB201_2019_07_03_18_01_00_000511
190502_NVL601_01_00674
190509_LLQ201_01_00105
LLQ501_2019_07_16_19_22_22_00522
190511_LLQ101_01_00259
NVL101_2019_07_05_15_54_48_19IDs_000436
190703_NVL101_2_00506
LBB201_2019_07_03_18_01_00_000211
190511_LLQ101_01_00020
190509_NVL601_01_00021
190509_NVL601_01_00283
190703_NVL101_2_01181
190509_NVL601_01_00168
190502_NVL601_01_00653
190527_LLQ501_01_00056
190703_NVL101_2_01516
LLQ501_2019_07_16_19_22_22_00239
190703_NVL101_2_00704
190511_LLQ101_01_00167
190516_LBB201_01_00281
LBB201_2019_07_03_18_01_00_001426
LBB201_2019_07_03_18_01_00_003136
190521_NVL701_01_00014
LBB301_2019_07_03_18_01_00_21IDs_000061
190703_NVL101_2_01430
190509_NVL601_01_00297
190703_NVL101_2_00910
190521_NVL301_01_00289
190521_NVL101_01_00147
LLQ501_2019_07_16_19_22_22_00515
LBB201_2019_07_03_18_01_00_001831
NVL101_2019_07_05_15_54_48_19IDs_000931
190511_LLQ201_01_00016
190521_NVL301_01_00316
LBB201_2019_07_03_18_01_00_003001
190502_NVL601_01_00392
LLQ301_2019_05_11_16_27_15_26IDs_000016
LLQ501_2019_07_16_19_22_22_00007
190511_LLQ301_01_00017
LLQ301_2019_05_11_16_27_15_26IDs_000706
190703_NVL101_2_00501
190703_NVL101_2_00673
190509_NVL601_01_00269
190511_LLQ501_01_00020
LBB301_2019_07_03_18_01_00_21IDs_001771
LLQ501_2019_07_16_19_22_22_00264
190703_NVL101_2_00879
190521_NVL701_01_00028
190511_LLQ501_01_00037
190511_LLQ101_01_00175
LBB301_2019_07_03_18_01_00_21IDs_000976
190502_NVL601_01_00439
LBB201_2019_07_03_18_01_00_003016
190703_NVL101_2_00534
190703_NVL101_2_01437
LBB201_2019_07_03_18_01_00_003301
190511_LLQ101_01_00058
NVL101_2019_07_05_15_54_48_19IDs_000976
190521_NVL701_01_00109
190511_LLQ101_01_00147
LBB201_2019_07_03_18_01_00_002626
190703_NVL101_2_01505
190703_NVL101_2_00609
LLQ501_2019_07_16_19_22_22_00446
190511_LLQ301_01_00035
190703_NVL101_2_00676
NVL101_2019_07_05_15_54_48_19IDs_000661
190703_NVL101_2_01344
190703_NVL101_2_00714
LLQ501_2019_07_16_19_22_22_00724
190703_NVL101_2_00481
190703_NVL101_2_01614
190511_LLQ101_01_00261
LLQ501_2019_07_16_19_22_22_00263
190502_NVL601_01_00388
190511_LLQ101_01_00022
LBB301_2019_07_03_18_01_00_21IDs_001861
190502_NVL601_01_00081
LBB201_2019_07_03_18_01_00_000406
190516_LBB301_01_00006
190703_NVL101_2_00641
LLQ501_2019_07_16_19_22_22_00106
LLQ501_2019_07_16_19_22_22_01588
190502_NVL601_01_00537
LBB201_2019_07_03_18_01_00_000451
190703_NVL101_2_00759
LLQ501_2019_07_16_19_22_22_00834
190516_LBB301_01_00003
190521_NVL701_01_00169
NVL101_2019_07_05_15_54_48_19IDs_000196
190516_LBB301_02_00130
190521_NVL101_01_00146
190521_NVL101_01_00027
190521_NVL701_01_00196
190509_LLQ201_01_00116
190511_LLQ101_01_00010
LLQ301_2019_05_11_16_27_15_26IDs_001201
190527_LLQ501_01_00045
190703_NVL101_2_00504
LBB201_2019_07_03_18_01_00_002596
190703_NVL101_2_01368
190703_NVL101_2_00533
LBB201_2019_07_03_18_01_00_002611
LLQ501_2019_07_16_19_22_22_00526
190509_LLQ201_01_00003
190511_LLQ101_01_00196
LLQ501_2019_07_16_19_22_22_00520
190527_LLQ501_01_00057
190511_LLQ101_01_00270
190703_NVL101_2_00477
LBB201_2019_07_03_18_01_00_000571
LBB301_2019_07_03_18_01_00_21IDs_002266
190527_LLQ501_01_00003
190511_LLQ101_01_00286
190509_LLQ201_01_00016
190511_LLQ101_01_00071
LBB201_2019_07_03_18_01_00_000016
190703_NVL101_2_00677
LLQ501_2019_05_11_16_27_15_19IDs_000601
190509_NVL601_01_00216
190511_LLQ201_01_00045
190511_LLQ101_01_00269
LBB201_2019_07_03_18_01_00_003481
190511_LLQ201_01_00060
LLQ501_2019_05_11_16_27_15_19IDs_000001
190703_NVL101_2_00738
190502_NVL601_01_00552
LBB301_2019_07_03_18_01_00_21IDs_000496
LBB201_2019_07_03_18_01_00_001081
LBB301_2019_07_03_18_01_00_21IDs_003571
190511_LLQ301_01_00055
190703_NVL101_2_00747
190703_NVL101_2_01199
NVL101_2019_07_05_15_54_48_19IDs_000376
190521_NVL701_01_00002
LBB201_2019_07_03_18_01_00_002911
190521_NVL701_01_00073
190703_NVL101_2_01669
LBB301_2019_07_03_18_01_00_21IDs_002356
190703_NVL101_2_00897
190521_NVL701_01_00023
NVL101_2019_07_05_15_54_48_19IDs_000241
LLQ501_2019_07_16_19_22_22_00443
190509_LLQ201_01_00138
190509_NVL601_01_00013
LBB201_2019_07_03_18_01_00_003106
190509_NVL601_01_00030
190509_LLQ201_01_00108
190703_NVL101_2_01180
LBB301_2019_07_03_18_01_00_21IDs_001186
190521_NVL701_01_00111
NVL101_2019_07_05_15_54_48_19IDs_000511
190521_NVL701_01_00044
LLQ301_2019_05_11_16_27_15_26IDs_000481
LBB201_2019_07_03_18_01_00_000106
LLQ501_2019_07_16_19_22_22_00950
190511_LLQ101_01_00066
190703_NVL101_2_01511
LBB301_2019_07_03_18_01_00_21IDs_002176
190509_LLQ201_01_00032
190521_NVL301_01_00002
190511_LLQ301_01_00083
190703_NVL101_2_00978
190703_NVL101_2_01071
LBB201_2019_07_03_18_01_00_002131
190511_LLQ301_01_00105
190703_NVL101_2_01507
LBB301_2019_07_03_18_01_00_21IDs_001846
190521_NVL101_01_00012
190521_NVL701_01_00108
190703_NVL101_2_00659
190521_NVL701_01_00192
190527_LLQ501_01_00012
LBB201_2019_07_03_18_01_00_000091
190521_NVL301_01_00008
LBB201_2019_07_03_18_01_00_002161
LBB301_2019_07_03_18_01_00_21IDs_002926
190703_NVL101_2_01734
LLQ501_2019_07_16_19_22_22_00457
190516_LBB301_02_00002
190516_LBB301_02_00143
LBB301_2019_07_03_18_01_00_21IDs_002041
LBB201_2019_07_03_18_01_00_003391
LBB201_2019_07_03_18_01_00_002521
LBB201_2019_07_03_18_01_00_000166
190511_LLQ101_01_00051
LBB301_2019_07_03_18_01_00_21IDs_000166
190511_LLQ101_01_00004
LBB201_2019_07_03_18_01_00_002221
LLQ501_2019_07_16_19_22_22_00143
190703_NVL101_2_00975
LLQ501_2019_07_16_19_22_22_01105
LLQ301_2019_05_11_16_27_15_26IDs_000991
190509_LLQ201_01_00353
190703_NVL101_2_00550
190703_NVL101_2_00690
NVL101_2019_07_05_15_54_48_19IDs_000856
190502_NVL601_01_00400
190509_NVL601_01_00027
190703_NVL101_2_00652
190527_LLQ501_01_00017
190511_LLQ101_01_00254
190703_NVL101_2_00934
190509_LLQ201_01_00022
LLQ301_2019_05_11_16_27_15_26IDs_000436
190703_NVL101_2_00563
190703_NVL101_2_01646
190516_LBB301_01_00001
190511_LLQ101_01_00043
190511_LLQ101_01_00125
190509_LLQ201_01_00154
LLQ501_2019_05_11_16_27_15_19IDs_000151
190521_NVL101_01_00143
190516_LBB301_02_00193
190509_NVL601_01_00243
190703_NVL101_2_00383
LLQ501_2019_05_11_16_27_15_19IDs_000376
190527_LLQ501_01_00158
LLQ501_2019_07_16_19_22_22_00260
190511_LLQ101_01_00021
190703_NVL101_2_00516
190502_NVL601_01_00675
LBB301_2019_07_03_18_01_00_21IDs_001996
LBB301_2019_07_03_18_01_00_21IDs_000091
190703_NVL101_2_01885
LBB201_2019_07_03_18_01_00_000121
190703_NVL101_2_00911
190703_NVL101_2_00762
LBB301_2019_07_03_18_01_00_21IDs_002236
190527_LLQ501_01_00051
LLQ501_2019_07_16_19_22_22_00379
190516_LBB201_01_00028
190521_NVL701_01_00195
NVL101_2019_07_05_15_54_48_19IDs_001006
190516_LBB301_02_00194
LBB301_2019_07_03_18_01_00_21IDs_003196
190509_LLQ201_01_00178
190509_NVL601_01_00024
190511_LLQ201_01_00057
190511_LLQ101_01_00055
190521_NVL101_01_00148
190527_LLQ501_01_00014
190703_NVL101_2_01917
190521_NVL301_01_00115
LLQ301_2019_05_11_16_27_15_26IDs_000406
190521_NVL301_01_00174
LLQ501_2019_07_16_19_22_22_00002
190703_NVL101_2_01178
190511_LLQ301_01_00113
190516_LBB301_02_00022
190516_LBB301_02_00028
190511_LLQ101_01_00050
NVL101_2019_07_05_15_54_48_19IDs_000601
LLQ301_2019_05_11_16_27_15_26IDs_000331
190703_NVL101_2_00884
190516_LBB301_02_00010
LLQ501_2019_07_16_19_22_22_00216
190511_LLQ101_01_00110
190502_NVL601_01_00697
190521_NVL701_01_00013
NVL101_2019_07_05_15_54_48_19IDs_000031
190511_LLQ101_01_00263
190511_LLQ201_01_00022
190511_LLQ101_01_00108
LBB201_2019_07_03_18_01_00_000421
190511_LLQ201_01_00024
190703_NVL101_2_00944
190511_LLQ101_01_00260
LLQ301_2019_05_11_16_27_15_26IDs_000076
190527_LLQ501_01_00166
190511_LLQ101_01_00128
LLQ501_2019_07_16_19_22_22_00990
LBB301_2019_07_03_18_01_00_21IDs_000106
190511_LLQ201_01_00046
190516_LBB301_01_00019
LBB301_2019_07_03_18_01_00_21IDs_000736
190516_LBB201_01_00022
190511_LLQ501_01_00033
190509_NVL601_01_00042
LBB201_2019_07_03_18_01_00_000691
190509_NVL601_01_00005
LBB301_2019_07_03_18_01_00_21IDs_000691
190703_NVL101_2_00621
LLQ501_2019_05_11_16_27_15_19IDs_000061
190703_NVL101_2_00508
190511_LLQ101_01_00037
190703_NVL101_2_00718
LBB201_2019_07_03_18_01_00_001651
LBB301_2019_07_03_18_01_00_21IDs_002986
190502_NVL601_01_00729
190703_NVL101_2_01884
190703_NVL101_2_01613
NVL101_2019_07_05_15_54_48_19IDs_000286
LBB301_2019_07_03_18_01_00_21IDs_002746
190509_NVL601_01_00223
190511_LLQ501_01_00001
190703_NVL101_2_01186
190502_NVL601_01_00731
190509_NVL601_01_00255
190509_NVL601_01_00282
190516_LBB301_01_00018
190703_NVL101_2_00932
LBB201_2019_07_03_18_01_00_001051
190502_NVL601_01_00375
190703_NVL101_2_01157
190703_NVL101_2_01436
190502_NVL601_01_00621
190703_NVL101_2_00670
LLQ501_2019_07_16_19_22_22_00741
190516_LBB301_02_00014
190509_LLQ201_01_00408
LLQ501_2019_07_16_19_22_22_00033
LLQ501_2019_07_16_19_22_22_00138
NVL101_2019_07_05_15_54_48_19IDs_001036
NVL101_2019_07_05_15_54_48_19IDs_001126
190703_NVL101_2_00876
LBB201_2019_07_03_18_01_00_001456
LBB201_2019_07_03_18_01_00_001966
LLQ501_2019_07_16_19_22_22_00214
190511_LLQ201_01_00006
LLQ501_2019_07_16_19_22_22_00802
LBB201_2019_07_03_18_01_00_001561
190527_LLQ501_01_00002
190703_NVL101_2_00494
LBB301_2019_07_03_18_01_00_21IDs_001351
190511_LLQ101_01_00045
190511_LLQ101_01_00250
LLQ501_2019_07_16_19_22_22_01942
190703_NVL101_2_00486
190527_LLQ501_01_00067
190521_NVL701_01_00075
LLQ501_2019_07_16_19_22_22_00525
190703_NVL101_2_01911
LLQ501_2019_05_11_16_27_15_19IDs_000391
190703_NVL101_2_00798
190703_NVL101_2_00551
190509_NVL601_01_00028
190511_LLQ101_01_00192
190521_NVL301_01_00344
190516_LBB301_02_00018
LLQ301_2019_05_11_16_27_15_26IDs_000466
NVL101_2019_07_05_15_54_48_19IDs_000016
190521_NVL701_01_00171
LBB201_2019_07_03_18_01_00_001741
190502_NVL601_01_00478
LBB301_2019_07_03_18_01_00_21IDs_002821
190703_NVL101_2_00419
190521_NVL101_01_00366
190521_NVL701_01_00030
190703_NVL101_2_00878
190511_LLQ101_01_00124
LBB201_2019_07_03_18_01_00_001681
LLQ501_2019_07_16_19_22_22_00814
190511_LLQ201_01_00020
190521_NVL301_01_00142
190502_NVL601_01_00516
190703_NVL101_2_00980
NVL101_2019_07_05_15_54_48_19IDs_001186
LLQ501_2019_07_16_19_22_22_00091
LBB301_2019_07_03_18_01_00_21IDs_002626
LLQ501_2019_07_16_19_22_22_00562
NVL101_2019_07_05_15_54_48_19IDs_000166
190703_NVL101_2_00505
190516_LBB201_01_00019
190511_LLQ101_01_00151
LBB301_2019_07_03_18_01_00_21IDs_000871
190703_NVL101_2_00912
190509_NVL601_01_00238
LBB201_2019_07_03_18_01_00_000496
LLQ501_2019_05_11_16_27_15_19IDs_000541
LBB201_2019_07_03_18_01_00_003376
LBB201_2019_07_03_18_01_00_003226
NVL101_2019_07_05_15_54_48_19IDs_000406
190511_LLQ101_01_00038
LBB301_2019_07_03_18_01_00_21IDs_001696
NVL101_2019_07_05_15_54_48_19IDs_000556
LLQ301_2019_05_11_16_27_15_26IDs_000826
LBB301_2019_07_03_18_01_00_21IDs_001546
190703_NVL101_2_00732
LBB201_2019_07_03_18_01_00_000766
190511_LLQ101_01_00102
190703_NVL101_2_00558
190516_LBB301_02_00029
NVL101_2019_07_05_15_54_48_19IDs_000526
LBB301_2019_07_03_18_01_00_21IDs_002386
NVL101_2019_07_05_15_54_48_19IDs_000316
LLQ501_2019_07_16_19_22_22_02089
LLQ501_2019_07_16_19_22_22_00036
LLQ501_2019_07_16_19_22_22_00154
190703_NVL101_2_00750
190509_NVL601_01_00001
LBB301_2019_07_03_18_01_00_21IDs_003481
190703_NVL101_2_00794
190703_NVL101_2_00731
LBB201_2019_07_03_18_01_00_002011
190509_LLQ201_01_00201
LLQ501_2019_05_11_16_27_15_19IDs_000241
LBB301_2019_07_03_18_01_00_21IDs_001981
190502_NVL601_01_00057
LLQ501_2019_07_16_19_22_22_00448
190509_NVL601_01_00045
LBB301_2019_07_03_18_01_00_21IDs_002836
190703_NVL101_2_00918
190509_NVL601_01_00015
LBB201_2019_07_03_18_01_00_002176
NVL101_2019_07_05_15_54_48_19IDs_000271
190521_NVL301_01_00176
190703_NVL101_2_00554
190527_LLQ501_01_00028
LBB301_2019_07_03_18_01_00_21IDs_002251
190703_NVL101_2_00893
190509_NVL601_01_00022
190511_LLQ101_01_00271
190511_LLQ201_01_00300
LBB301_2019_07_03_18_01_00_21IDs_000661
LBB301_2019_07_03_18_01_00_21IDs_003151
190527_LLQ501_01_00020
190511_LLQ201_01_00001
190502_NVL601_01_00013
190521_NVL701_01_00025
190511_LLQ101_01_00001
LBB301_2019_07_03_18_01_00_21IDs_001336
NVL101_2019_07_05_15_54_48_19IDs_001021
190511_LLQ201_01_00004
190703_NVL101_2_00626
190703_NVL101_2_00959
190502_NVL601_01_00743
LBB201_2019_07_03_18_01_00_000871
190502_NVL601_01_00443
190703_NVL101_2_00964
190703_NVL101_2_00885
LLQ501_2019_07_16_19_22_22_00069
190521_NVL701_01_00045
NVL101_2019_07_05_15_54_48_19IDs_000256
LBB201_2019_07_03_18_01_00_000331
190502_NVL601_01_00425
LLQ501_2019_07_16_19_22_22_00772
190516_LBB301_02_00291
LBB201_2019_07_03_18_01_00_001666
190521_NVL101_01_00016
LBB201_2019_07_03_18_01_00_000961
190509_LLQ201_01_00006
190703_NVL101_2_01508
LBB301_2019_07_03_18_01_00_21IDs_003226
190516_LBB301_02_00290
190703_NVL101_2_00624
190703_NVL101_2_00562
190527_LLQ501_01_00044
LLQ301_2019_05_11_16_27_15_26IDs_000256
190521_NVL301_01_00217
190509_NVL601_01_00166
LBB301_2019_07_03_18_01_00_21IDs_001531
LLQ501_2019_07_16_19_22_22_00996
190502_NVL601_01_00498
190521_NVL101_01_00056
LBB201_2019_07_03_18_01_00_002026
LBB301_2019_07_03_18_01_00_21IDs_002596
190703_NVL101_2_01913
190521_NVL301_01_00141
190511_LLQ101_01_00101
190703_NVL101_2_01615
190509_NVL601_01_00029
190521_NVL701_01_00072
190509_LLQ201_01_00249
190516_LBB201_01_00020
190703_NVL101_2_00914
190511_LLQ201_01_00063
NVL101_2019_07_05_15_54_48_19IDs_000496
190527_LLQ501_01_00182
LBB301_2019_07_03_18_01_00_21IDs_002851
190703_NVL101_2_01632
LBB301_2019_07_03_18_01_00_21IDs_000421
190516_LBB201_01_00149
190509_LLQ201_01_00020
190703_NVL101_2_01624
LLQ501_2019_07_16_19_22_22_00140
190516_LBB301_02_00008
LBB301_2019_07_03_18_01_00_21IDs_001156
190509_LLQ201_01_00399
190527_LLQ501_01_00023
190521_NVL701_01_00113
190703_NVL101_2_00877
LLQ501_2019_07_16_19_22_22_00105
LLQ501_2019_07_16_19_22_22_00173
LLQ501_2019_07_16_19_22_22_00245
LLQ301_2019_05_11_16_27_15_26IDs_000541
NVL101_2019_07_05_15_54_48_19IDs_000826
190703_NVL101_2_01345
LLQ301_2019_05_11_16_27_15_26IDs_000946
190521_NVL301_01_00007
LBB301_2019_07_03_18_01_00_21IDs_002461
LBB201_2019_07_03_18_01_00_002986
190511_LLQ301_01_00063
190511_LLQ501_01_00004
190511_LLQ101_01_00032
190703_NVL101_2_01245
190502_NVL601_01_00035
190703_NVL101_2_00767
190527_LLQ501_01_00015
190511_LLQ301_01_00024
190521_NVL701_01_00024
190527_LLQ501_01_00022
190516_LBB301_02_00024
190703_NVL101_2_00496
LLQ301_2019_05_11_16_27_15_26IDs_000136
190703_NVL101_2_01518
LBB301_2019_07_03_18_01_00_21IDs_000256
LBB201_2019_07_03_18_01_00_001906
190502_NVL601_01_00616
LLQ501_2019_07_16_19_22_22_00215
190509_LLQ201_01_00033
190502_NVL601_01_00016
190521_NVL301_01_00345
190509_NVL601_01_00043
190509_NVL601_01_00131
LLQ501_2019_07_16_19_22_22_00111
190511_LLQ101_01_00152
NVL101_2019_07_05_15_54_48_19IDs_001141
190516_LBB201_01_00008
190511_LLQ101_01_00047
190527_LLQ501_01_00151
190521_NVL701_01_00043
190516_LBB201_01_00001
190502_NVL601_01_00029
NVL101_2019_07_05_15_54_48_19IDs_001171
190527_LLQ501_01_00024
LLQ501_2019_05_11_16_27_15_19IDs_000361
190521_NVL101_01_00020
190703_NVL101_2_00977
190703_NVL101_2_00439
190521_NVL301_01_00012
190509_NVL601_01_00314
190502_NVL601_01_00404
LBB301_2019_07_03_18_01_00_21IDs_001486
NVL101_2019_07_05_15_54_48_19IDs_001081
LLQ301_2019_05_11_16_27_15_26IDs_000736
190509_LLQ201_01_00005
LBB201_2019_07_03_18_01_00_003421
190703_NVL101_2_00555
LBB201_2019_07_03_18_01_00_001411
190521_NVL301_01_00177
190502_NVL601_01_00011
190502_NVL601_01_00026
190511_LLQ101_01_00134
LBB201_2019_07_03_18_01_00_003346
LBB301_2019_07_03_18_01_00_21IDs_003181
190511_LLQ201_01_00011
LLQ501_2019_07_16_19_22_22_02146
LLQ501_2019_07_16_19_22_22_00746
190511_LLQ101_01_00257
LBB301_2019_07_03_18_01_00_21IDs_002776
LBB201_2019_07_03_18_01_00_001486
190521_NVL301_01_00104
LBB301_2019_07_03_18_01_00_21IDs_003286
LBB301_2019_07_03_18_01_00_21IDs_003031
LBB201_2019_07_03_18_01_00_002296
LLQ501_2019_07_16_19_22_22_01087
190527_LLQ501_01_00058
190703_NVL101_2_01030
190511_LLQ101_01_00142
190703_NVL101_2_01347
LBB201_2019_07_03_18_01_00_002941
190511_LLQ501_01_00011
190703_NVL101_2_01348
190521_NVL301_01_00348
NVL101_2019_07_05_15_54_48_19IDs_000811
190509_NVL601_01_00234
LLQ501_2019_07_16_19_22_22_02091
190509_NVL601_01_00026
LBB301_2019_07_03_18_01_00_21IDs_003451
190703_NVL101_2_01431
LLQ301_2019_05_11_16_27_15_26IDs_000661
190703_NVL101_2_00559
190521_NVL301_01_00102
190527_LLQ501_01_00048
LBB201_2019_07_03_18_01_00_001696
190527_LLQ501_01_00154
LBB201_2019_07_03_18_01_00_000751
LLQ301_2019_05_11_16_27_15_26IDs_000496
LBB301_2019_07_03_18_01_00_21IDs_000586
LBB301_2019_07_03_18_01_00_21IDs_001951
190703_NVL101_2_00400
190511_LLQ101_01_00106
190511_LLQ101_01_00003
NVL101_2019_07_05_15_54_48_19IDs_000901
NVL101_2019_07_05_15_54_48_19IDs_000871
190703_NVL101_2_01176
190502_NVL601_01_00045
190703_NVL101_2_01043
190502_NVL601_01_00639
LLQ501_2019_07_16_19_22_22_00815
LLQ501_2019_05_11_16_27_15_19IDs_000016
LBB201_2019_07_03_18_01_00_000736
190516_LBB301_02_00146
190509_NVL601_01_00056
LLQ501_2019_05_11_16_27_15_19IDs_000196
190703_NVL101_2_00405
LBB201_2019_07_03_18_01_00_002146
190511_LLQ101_01_00002
190521_NVL701_01_00173
190521_NVL701_01_00017
190511_LLQ201_01_00005
LBB301_2019_07_03_18_01_00_21IDs_002056
190509_LLQ201_01_00189
LBB201_2019_07_03_18_01_00_003286
190502_NVL601_01_00006
190703_NVL101_2_00945
190527_LLQ501_01_00172
190521_NVL701_01_00170
190509_LLQ201_01_00264
LLQ501_2019_07_16_19_22_22_00468
LBB201_2019_07_03_18_01_00_000556
190521_NVL301_01_00347
LBB201_2019_07_03_18_01_00_000046
190521_NVL301_01_00086
190527_LLQ501_01_00167
190703_NVL101_2_01122
LLQ501_2019_05_11_16_27_15_19IDs_000331
190502_NVL601_01_00586
LLQ501_2019_07_16_19_22_22_02115
LBB301_2019_07_03_18_01_00_21IDs_001066
190516_LBB301_02_00269
190511_LLQ501_01_00006
190502_NVL601_01_00477
190511_LLQ101_01_00057
190703_NVL101_2_01439
190521_NVL101_01_00005
190703_NVL101_2_00881
LBB201_2019_07_03_18_01_00_003181
190511_LLQ201_01_00059
190527_LLQ501_01_00177
190516_LBB301_01_00002
LLQ501_2019_07_16_19_22_22_00527
190511_LLQ101_01_00005
LLQ501_2019_07_16_19_22_22_00049
190511_LLQ301_01_00048
LLQ501_2019_07_16_19_22_22_01101
LBB301_2019_07_03_18_01_00_21IDs_000376
190703_NVL101_2_01433
190509_LLQ201_01_00035
190521_NVL301_01_00080
LLQ501_2019_07_16_19_22_22_00039
190509_LLQ201_01_00296
LLQ501_2019_07_16_19_22_22_00513
190703_NVL101_2_00623
190511_LLQ201_01_00291
190703_NVL101_2_01506
190511_LLQ101_01_00137
LBB301_2019_07_03_18_01_00_21IDs_001321
LLQ501_2019_07_16_19_22_22_00267
LBB201_2019_07_03_18_01_00_000826
190521_NVL301_01_00319
NVL101_2019_07_05_15_54_48_19IDs_001156
190703_NVL101_2_00734
190516_LBB301_01_00009
190703_NVL101_2_01369
190703_NVL101_2_01191
LBB201_2019_07_03_18_01_00_001306
LBB301_2019_07_03_18_01_00_21IDs_002671
190703_NVL101_2_00635
LBB301_2019_07_03_18_01_00_21IDs_000451
190703_NVL101_2_01367
190527_LLQ501_01_00070
190521_NVL301_01_00079
190502_NVL601_01_00686
190511_LLQ201_01_00074
LLQ501_2019_07_16_19_22_22_00563
NVL101_2019_07_05_15_54_48_19IDs_000466
190502_NVL601_01_00072
190703_NVL101_2_01175
LBB201_2019_07_03_18_01_00_002866
190509_LLQ201_01_00107
LBB201_2019_07_03_18_01_00_002101
190502_NVL601_01_00207
LBB201_2019_07_03_18_01_00_003061
190509_LLQ201_01_00075
190511_LLQ201_01_00003
LBB301_2019_07_03_18_01_00_21IDs_003436
LBB201_2019_07_03_18_01_00_000721
190521_NVL101_01_00008
NVL101_2019_07_05_15_54_48_19IDs_000346
190521_NVL701_01_00012
LLQ501_2019_07_16_19_22_22_00371
190511_LLQ201_01_00015
190703_NVL101_2_00650
190509_NVL601_01_00232
NVL101_2019_07_05_15_54_48_19IDs_000571
NVL101_2019_07_05_15_54_48_19IDs_000616
LBB301_2019_07_03_18_01_00_21IDs_001426
190511_LLQ101_01_00081
190511_LLQ301_01_00002
190511_LLQ101_01_00251
LBB301_2019_07_03_18_01_00_21IDs_002281
190516_LBB301_01_00020
LLQ501_2019_07_16_19_22_22_00130
190521_NVL301_01_00075
190703_NVL101_2_01039
190516_LBB201_01_00039
190502_NVL601_01_00001
LBB301_2019_07_03_18_01_00_21IDs_001126
LLQ501_2019_07_16_19_22_22_00798
190703_NVL101_2_00725
190703_NVL101_2_00402
190703_NVL101_2_00618
LBB301_2019_07_03_18_01_00_21IDs_002161
LBB301_2019_07_03_18_01_00_21IDs_002296
190527_LLQ501_01_00197
190703_NVL101_2_00882
LBB301_2019_07_03_18_01_00_21IDs_000706
190527_LLQ501_01_00183
190511_LLQ101_01_00258
LBB201_2019_07_03_18_01_00_001576
LLQ301_2019_05_11_16_27_15_26IDs_001066
LBB201_2019_07_03_18_01_00_001531
LLQ501_2019_07_16_19_22_22_01746
190516_LBB301_02_00233
190511_LLQ101_01_00056
190521_NVL101_01_00026
190521_NVL301_01_00082
LBB201_2019_07_03_18_01_00_002056
190703_NVL101_2_01123
190509_NVL601_01_00040
LLQ501_2019_07_16_19_22_22_00004
LBB201_2019_07_03_18_01_00_002956
190703_NVL101_2_00976
LBB301_2019_07_03_18_01_00_21IDs_000616
LLQ501_2019_07_16_19_22_22_00449
190511_LLQ101_01_00048
190509_NVL601_01_00227
LBB201_2019_07_03_18_01_00_002431
LLQ501_2019_07_16_19_22_22_00989
190527_LLQ501_01_00054
LLQ501_2019_07_16_19_22_22_00492
190511_LLQ101_01_00042
190703_NVL101_2_00927
190511_LLQ201_01_00047
190511_LLQ301_01_00093
190502_NVL601_01_00229
LBB201_2019_07_03_18_01_00_001096
190502_NVL601_01_00709
190502_NVL601_01_00218
190703_NVL101_2_00507
190703_NVL101_2_01566
190509_NVL601_01_00316
LBB301_2019_07_03_18_01_00_21IDs_000271
190516_LBB301_02_00292
LLQ501_2019_07_16_19_22_22_01946
190509_LLQ201_01_00355
LLQ501_2019_07_16_19_22_22_00131
190521_NVL701_01_00038
190703_NVL101_2_00930
LLQ501_2019_07_16_19_22_22_00518
190516_LBB201_01_00004
190703_NVL101_2_00484
190703_NVL101_2_01626
190511_LLQ101_01_00127
LBB201_2019_07_03_18_01_00_001591
190516_LBB301_02_00197
190511_LLQ501_01_00005
LBB201_2019_07_03_18_01_00_001381
LLQ501_2019_05_11_16_27_15_19IDs_000466
NVL101_2019_07_05_15_54_48_19IDs_000841
LLQ501_2019_05_11_16_27_15_19IDs_000556
190521_NVL101_01_00017
190703_NVL101_2_01883
190511_LLQ101_01_00148
190521_NVL701_01_00069
LBB201_2019_07_03_18_01_00_003541
190703_NVL101_2_00960
190703_NVL101_2_00482
LLQ501_2019_07_16_19_22_22_00425
190521_NVL301_01_00140
190521_NVL701_01_00041
190502_NVL601_01_00600
190511_LLQ101_01_00150
190511_LLQ201_01_00048
190511_LLQ101_01_00186
190509_NVL601_01_00252
190502_NVL601_01_00187
LBB201_2019_07_03_18_01_00_000226
LLQ501_2019_07_16_19_22_22_00723
190509_NVL601_01_00231
LBB301_2019_07_03_18_01_00_21IDs_000076
190502_NVL601_01_00414
LBB201_2019_07_03_18_01_00_000136
LLQ301_2019_05_11_16_27_15_26IDs_000031
190521_NVL101_01_00004
190703_NVL101_2_00883
190502_NVL601_01_00018
LBB301_2019_07_03_18_01_00_21IDs_000781
190703_NVL101_2_00756
LBB301_2019_07_03_18_01_00_21IDs_001621
190527_LLQ501_01_00077
190516_LBB301_02_00252
190527_LLQ501_01_00018
LLQ501_2019_07_16_19_22_22_00510
LBB301_2019_07_03_18_01_00_21IDs_003106
190703_NVL101_2_01650
190502_NVL601_01_00678
190703_NVL101_2_01523
LBB301_2019_07_03_18_01_00_21IDs_000556
190521_NVL701_01_00137
190521_NVL101_01_00042
190509_NVL601_01_00129
190509_NVL601_01_00011
LLQ501_2019_07_16_19_22_22_01039
LBB301_2019_07_03_18_01_00_21IDs_002491
190502_NVL601_01_00007
190703_NVL101_2_01644
LLQ501_2019_07_16_19_22_22_00616
LLQ501_2019_05_11_16_27_15_19IDs_000211
190509_LLQ201_01_00019
190509_LLQ201_01_00040
LLQ501_2019_07_16_19_22_22_00102
190509_NVL601_01_00222
LBB301_2019_07_03_18_01_00_21IDs_002566
190511_LLQ101_01_00107
190521_NVL301_01_00314
190509_NVL601_01_00215
190703_NVL101_2_01503
190703_NVL101_2_01044
190511_LLQ101_01_00019
LBB201_2019_07_03_18_01_00_001141
190516_LBB301_02_00276
LBB301_2019_07_03_18_01_00_21IDs_002551
LBB201_2019_07_03_18_01_00_000436
190509_LLQ201_01_00008
LLQ501_2019_07_16_19_22_22_01943
190703_NVL101_2_00721
LBB201_2019_07_03_18_01_00_000841
190703_NVL101_2_00889
190703_NVL101_2_00916
190511_LLQ201_01_00023
LBB201_2019_07_03_18_01_00_003406
LBB301_2019_07_03_18_01_00_21IDs_001411
190511_LLQ501_01_00038
190509_LLQ201_01_00098
LLQ501_2019_07_16_19_22_22_00127
LBB201_2019_07_03_18_01_00_002461
190511_LLQ101_01_00154
LLQ301_2019_05_11_16_27_15_26IDs_001141
190509_NVL601_01_00006
190516_LBB301_02_00012
LBB201_2019_07_03_18_01_00_000301
190527_LLQ501_01_00046
LLQ301_2019_05_11_16_27_15_26IDs_000886
LLQ301_2019_05_11_16_27_15_26IDs_000616
LBB301_2019_07_03_18_01_00_21IDs_002806
190703_NVL101_2_01185
190509_LLQ201_01_00106
LLQ501_2019_07_16_19_22_22_01109
190703_NVL101_2_01908
LLQ501_2019_07_16_19_22_22_00144
190703_NVL101_2_00880
190511_LLQ101_01_00133
190511_LLQ101_01_00064
LLQ501_2019_07_16_19_22_22_00041
190511_LLQ501_01_00029
190703_NVL101_2_01360
LBB201_2019_07_03_18_01_00_000616
190502_NVL601_01_00722
LBB301_2019_07_03_18_01_00_21IDs_001606
190511_LLQ101_01_00069
LBB301_2019_07_03_18_01_00_21IDs_000841
LLQ501_2019_05_11_16_27_15_19IDs_000346
LBB201_2019_07_03_18_01_00_002326
190511_LLQ201_01_00301
190703_NVL101_2_01028
LBB301_2019_07_03_18_01_00_21IDs_000811
190703_NVL101_2_00974
190516_LBB201_01_00002
190509_NVL601_01_00236
190703_NVL101_2_00616
190703_NVL101_2_01510
190703_NVL101_2_01821
190703_NVL101_2_01909
190703_NVL101_2_01509
LBB201_2019_07_03_18_01_00_001276
190502_NVL601_01_00476
LLQ301_2019_05_11_16_27_15_26IDs_000361
190516_LBB301_02_00286
190703_NVL101_2_01390
LBB301_2019_07_03_18_01_00_21IDs_001306
190521_NVL301_01_00101
190521_NVL301_01_00343
190521_NVL301_01_00151
190521_NVL701_01_00074
190511_LLQ301_01_00118
190502_NVL601_01_00760
LBB301_2019_07_03_18_01_00_21IDs_001276
LLQ501_2019_07_16_19_22_22_00268
190511_LLQ301_01_00013
LBB201_2019_07_03_18_01_00_002791
LBB301_2019_07_03_18_01_00_21IDs_000826
LBB201_2019_07_03_18_01_00_000931
190511_LLQ101_01_00139
LBB301_2019_07_03_18_01_00_21IDs_003016
190511_LLQ501_01_00018
LBB301_2019_07_03_18_01_00_21IDs_002641
190509_NVL601_01_00229
190703_NVL101_2_00403
LBB301_2019_07_03_18_01_00_21IDs_001681
190703_NVL101_2_00530
190527_LLQ501_01_00184
190703_NVL101_2_00741
LBB301_2019_07_03_18_01_00_21IDs_001801
LBB301_2019_07_03_18_01_00_21IDs_002191
LBB201_2019_07_03_18_01_00_003121
NVL101_2019_07_05_15_54_48_19IDs_000706
190521_NVL101_01_00018
190511_LLQ101_01_00164
LBB301_2019_07_03_18_01_00_21IDs_003391
190502_NVL601_01_00550
NVL101_2019_07_05_15_54_48_19IDs_000631
LLQ501_2019_07_16_19_22_22_01059
190511_LLQ501_01_00052
LBB301_2019_07_03_18_01_00_21IDs_001471
190511_LLQ101_01_00067
190509_NVL601_01_00025
190511_LLQ101_01_00027
190527_LLQ501_01_00011
LLQ501_2019_07_16_19_22_22_01570
NVL101_2019_07_05_15_54_48_19IDs_000331
LBB201_2019_07_03_18_01_00_003241
LLQ501_2019_07_16_19_22_22_00589
LBB301_2019_07_03_18_01_00_21IDs_001906
LLQ501_2019_07_16_19_22_22_00523
190516_LBB201_01_00018
190521_NVL701_01_00049
190509_NVL601_01_00250
190509_NVL601_01_00211
190521_NVL701_01_00046
190509_LLQ201_01_00023
190703_NVL101_2_00426
190527_LLQ501_01_00169
190509_LLQ201_01_00002
190502_NVL601_01_00601
LBB301_2019_07_03_18_01_00_21IDs_001501
190516_LBB301_02_00042
190703_NVL101_2_00710
LLQ501_2019_07_16_19_22_22_00261
LLQ501_2019_07_16_19_22_22_01315
190511_LLQ101_01_00008
LBB201_2019_07_03_18_01_00_003316
LBB301_2019_07_03_18_01_00_21IDs_000766
LLQ501_2019_07_16_19_22_22_00433
LLQ501_2019_07_16_19_22_22_00031
190521_NVL301_01_00076
190703_NVL101_2_00487
LBB201_2019_07_03_18_01_00_001891
190703_NVL101_2_01581
190521_NVL701_01_00134
LLQ501_2019_07_16_19_22_22_00491
190516_LBB301_02_00238
LLQ501_2019_07_16_19_22_22_00093
190509_LLQ201_01_00305
LBB201_2019_07_03_18_01_00_002776
190509_NVL601_01_00319
190502_NVL601_01_00431
190516_LBB301_01_00005
LBB201_2019_07_03_18_01_00_001006
LLQ501_2019_05_11_16_27_15_19IDs_000181
NVL101_2019_07_05_15_54_48_19IDs_000766
190502_NVL601_01_00591
LLQ301_2019_05_11_16_27_15_26IDs_000166
190521_NVL301_01_00117
190509_LLQ201_01_00266
190703_NVL101_2_00758
LBB301_2019_07_03_18_01_00_21IDs_002116
190703_NVL101_2_01388
LBB201_2019_07_03_18_01_00_000031
LBB201_2019_07_03_18_01_00_001126
190509_NVL601_01_00041
190511_LLQ101_01_00036
190511_LLQ101_01_00070
190502_NVL601_01_00275
LLQ301_2019_05_11_16_27_15_26IDs_001096
190509_NVL601_01_00224
LBB201_2019_07_03_18_01_00_001201
LBB201_2019_07_03_18_01_00_001996
190509_LLQ201_01_00366
LBB301_2019_07_03_18_01_00_21IDs_003316
190527_LLQ501_01_00157
LLQ501_2019_07_16_19_22_22_00087
190511_LLQ201_01_00070
190527_LLQ501_01_00053
LLQ501_2019_07_16_19_22_22_00071
190502_NVL601_01_00430
LLQ501_2019_07_16_19_22_22_00024
190521_NVL701_01_00139
NVL101_2019_07_05_15_54_48_19IDs_001051
190521_NVL701_01_00003
LBB201_2019_07_03_18_01_00_000976
190516_LBB301_01_00008
LLQ501_2019_07_16_19_22_22_00125
190502_NVL601_01_00687
190511_LLQ101_01_00035
190516_LBB301_02_00090
LBB301_2019_07_03_18_01_00_21IDs_001021
190703_NVL101_2_00644
190509_NVL601_01_00002
LLQ501_2019_07_16_19_22_22_00253
LBB201_2019_07_03_18_01_00_002281
LBB301_2019_07_03_18_01_00_21IDs_003496
LLQ501_2019_07_16_19_22_22_00714
190703_NVL101_2_00495
NVL101_2019_07_05_15_54_48_19IDs_000121
LLQ501_2019_07_16_19_22_22_00133
LLQ501_2019_07_16_19_22_22_00363
190521_NVL301_01_00004
190509_NVL601_01_00210
190502_NVL601_01_00365
190516_LBB301_02_00236
190511_LLQ101_01_00255
190703_NVL101_2_00669
190703_NVL101_2_00653
LBB301_2019_07_03_18_01_00_21IDs_002941
LBB301_2019_07_03_18_01_00_21IDs_002086
LBB301_2019_07_03_18_01_00_21IDs_000151
190509_LLQ201_01_00039
LLQ501_2019_07_16_19_22_22_00038
190521_NVL301_01_00084
LBB201_2019_07_03_18_01_00_003466
190509_NVL601_01_00031
190527_LLQ501_01_00149
190509_LLQ201_01_00407
190509_LLQ201_01_00014
190511_LLQ501_01_00008
190516_LBB201_01_00130
190516_LBB301_02_00041
LBB301_2019_07_03_18_01_00_21IDs_001036
190521_NVL301_01_00152
NVL101_2019_07_05_15_54_48_19IDs_000001
190521_NVL301_01_00013
190703_NVL101_2_01502
190509_NVL601_01_00032
LLQ501_2019_07_16_19_22_22_00727
LBB301_2019_07_03_18_01_00_21IDs_001456
LLQ501_2019_07_16_19_22_22_00599
190509_LLQ201_01_00018
LBB201_2019_07_03_18_01_00_001621
LLQ301_2019_05_11_16_27_15_26IDs_000796
190521_NVL101_01_00022
LLQ501_2019_07_16_19_22_22_00447
NVL101_2019_07_05_15_54_48_19IDs_000676
190521_NVL101_01_00006
LLQ501_2019_07_16_19_22_22_00352
190511_LLQ101_01_00029
190511_LLQ301_01_00086
LBB201_2019_07_03_18_01_00_001636
190509_LLQ201_01_00012
190703_NVL101_2_00875
190703_NVL101_2_01616
LBB301_2019_07_03_18_01_00_21IDs_000961
190509_NVL601_01_00233
190511_LLQ101_01_00188
190527_LLQ501_01_00075
190527_LLQ501_01_00074
LBB201_2019_07_03_18_01_00_001351
LBB301_2019_07_03_18_01_00_21IDs_001666
LBB201_2019_07_03_18_01_00_003451
190521_NVL301_01_00114
LBB301_2019_07_03_18_01_00_21IDs_003091
LBB201_2019_07_03_18_01_00_000631
190703_NVL101_2_00703
190703_NVL101_2_00546
LBB201_2019_07_03_18_01_00_002851
LBB301_2019_07_03_18_01_00_21IDs_002956
LBB201_2019_07_03_18_01_00_000781
190502_NVL601_01_00085
LBB201_2019_07_03_18_01_00_000586
LBB301_2019_07_03_18_01_00_21IDs_001726
190521_NVL301_01_00143
LLQ501_2019_05_11_16_27_15_19IDs_000571
190521_NVL101_01_00360
190703_NVL101_2_01047
190703_NVL101_2_01124
190527_LLQ501_01_00076
190511_LLQ101_01_00268
LLQ501_2019_07_16_19_22_22_00372
190703_NVL101_2_01046
LBB201_2019_07_03_18_01_00_000361
LBB301_2019_07_03_18_01_00_21IDs_000916
LLQ501_2019_07_16_19_22_22_00368
190521_NVL101_01_00001
LLQ301_2019_05_11_16_27_15_26IDs_000511
190509_LLQ201_01_00117
LBB301_2019_07_03_18_01_00_21IDs_003526
190502_NVL601_01_00413
LBB201_2019_07_03_18_01_00_000271
190509_NVL601_01_00004
190516_LBB301_02_00006
190703_NVL101_2_01434
LBB201_2019_07_03_18_01_00_001246
190502_NVL601_01_00188
190509_NVL601_01_00003
190527_LLQ501_01_00199
190527_LLQ501_01_00021
190509_LLQ101_04_00007
LBB201_2019_07_03_18_01_00_001216
LLQ501_2019_07_16_19_22_22_00032
LBB201_2019_07_03_18_01_00_002806
LBB301_2019_07_03_18_01_00_21IDs_003466
LBB201_2019_07_03_18_01_00_001861
LLQ501_2019_07_16_19_22_22_01067
190509_LLQ201_01_00258
190521_NVL701_01_00193
LLQ501_2019_07_16_19_22_22_00743
190521_NVL101_01_00023
190703_NVL101_2_01814
LBB201_2019_07_03_18_01_00_002356
LLQ301_2019_05_11_16_27_15_26IDs_000226
190703_NVL101_2_01091
190509_LLQ201_01_00159
190527_LLQ501_01_00006
LLQ501_2019_07_16_19_22_22_00659
LLQ501_2019_07_16_19_22_22_00175
NVL101_2019_07_05_15_54_48_19IDs_000721
LBB301_2019_07_03_18_01_00_21IDs_000676
190509_LLQ201_01_00096
LLQ501_2019_07_16_19_22_22_01013
190516_LBB201_01_00006
190703_NVL101_2_01654
190703_NVL101_2_01859
LBB301_2019_07_03_18_01_00_21IDs_000031
190502_NVL601_01_00380
LLQ501_2019_07_16_19_22_22_00072
LBB301_2019_07_03_18_01_00_21IDs_001756
LBB301_2019_07_03_18_01_00_21IDs_003046
190511_LLQ101_01_00153
190703_NVL101_2_00517
190516_LBB301_02_00001
LLQ501_2019_07_16_19_22_22_00035
LBB201_2019_07_03_18_01_00_001921
190521_NVL301_01_00175
LBB301_2019_07_03_18_01_00_21IDs_001051
190502_NVL601_01_00652
190703_NVL101_2_01432
LBB301_2019_07_03_18_01_00_21IDs_002521
LBB301_2019_07_03_18_01_00_21IDs_003211
LBB301_2019_07_03_18_01_00_21IDs_000751
LBB301_2019_07_03_18_01_00_21IDs_001396
190527_LLQ501_01_00161
190516_LBB201_01_00003
LLQ301_2019_05_11_16_27_15_26IDs_000181
190516_LBB301_02_00013
LBB201_2019_07_03_18_01_00_002476
190502_NVL601_01_00047
LBB201_2019_07_03_18_01_00_001021
LLQ301_2019_05_11_16_27_15_26IDs_000766
190502_NVL601_01_00501
190509_LLQ201_01_00021
LLQ301_2019_05_11_16_27_15_26IDs_000691
NVL101_2019_07_05_15_54_48_19IDs_000151
190521_NVL701_01_00136
190521_NVL301_01_00001
LLQ501_2019_07_16_19_22_22_00634
190511_LLQ101_01_00039
190703_NVL101_2_00678
190502_NVL601_01_00649
LBB201_2019_07_03_18_01_00_001336
LLQ501_2019_07_16_19_22_22_00135
190511_LLQ101_01_00109
LLQ301_2019_05_11_16_27_15_26IDs_000586
190502_NVL601_01_00422
LBB301_2019_07_03_18_01_00_21IDs_001636
190703_NVL101_2_00801
190516_LBB301_02_00131
LBB201_2019_07_03_18_01_00_000526
190703_NVL101_2_00842
LBB201_2019_07_03_18_01_00_000706
190703_NVL101_2_00384
LBB201_2019_07_03_18_01_00_002836
LBB301_2019_07_03_18_01_00_21IDs_000001
190516_LBB201_01_00147
190509_LLQ201_01_00379
190502_NVL601_01_00056
190511_LLQ101_01_00065
190511_LLQ101_01_00084
190527_LLQ501_01_00027
190703_NVL101_2_01881
190703_NVL101_2_01184
190511_LLQ101_01_00030
190509_NVL601_01_00008
190509_LLQ201_01_00177
190502_NVL601_01_00592
LBB301_2019_07_03_18_01_00_21IDs_002401
190703_NVL101_2_00896
LBB301_2019_07_03_18_01_00_21IDs_000991
LLQ501_2019_07_16_19_22_22_00156
190516_LBB201_01_00012
190509_NVL601_01_00324
NVL101_2019_07_05_15_54_48_19IDs_000361
LLQ501_2019_07_16_19_22_22_00110
LBB301_2019_07_03_18_01_00_21IDs_002311
LBB301_2019_07_03_18_01_00_21IDs_001231
LLQ501_2019_07_16_19_22_22_00485
190509_NVL601_01_00318
190511_LLQ201_01_00019
LBB301_2019_07_03_18_01_00_21IDs_000601
LBB301_2019_07_03_18_01_00_21IDs_002206
190521_NVL301_01_00312
190703_NVL101_2_01879
LBB201_2019_07_03_18_01_00_002191
190521_NVL701_01_00022
LBB301_2019_07_03_18_01_00_21IDs_003166
NVL101_2019_07_05_15_54_48_19IDs_001066
190509_NVL601_01_00237
190527_LLQ501_01_00193
190703_NVL101_2_00552
LLQ501_2019_07_16_19_22_22_00177
190511_LLQ101_01_00061
190521_NVL301_01_00179
LLQ301_2019_05_11_16_27_15_26IDs_000421
190703_NVL101_2_00720
LBB301_2019_07_03_18_01_00_21IDs_001381
LBB201_2019_07_03_18_01_00_000676
LBB201_2019_07_03_18_01_00_000886
190703_NVL101_2_01357
LLQ501_2019_05_11_16_27_15_19IDs_000451
LBB201_2019_07_03_18_01_00_001231
LBB301_2019_07_03_18_01_00_21IDs_000541
190509_NVL601_01_00214
190502_NVL601_01_00710
190516_LBB201_01_00148
190511_LLQ101_01_00138
NVL101_2019_07_05_15_54_48_19IDs_000991
LLQ501_2019_07_16_19_22_22_00232
190521_NVL701_01_00077
190521_NVL701_01_00004
190502_NVL601_01_00688
190509_NVL601_01_00332
LLQ501_2019_05_11_16_27_15_19IDs_000586
190703_NVL101_2_00740
LLQ501_2019_07_16_19_22_22_00217
LLQ501_2019_07_16_19_22_22_00112
190511_LLQ101_01_00083
LBB201_2019_07_03_18_01_00_001801
190509_NVL601_01_00038
190527_LLQ501_01_00171
190703_NVL101_2_00841
LBB301_2019_07_03_18_01_00_21IDs_002611
LLQ501_2019_07_16_19_22_22_00749
190703_NVL101_2_01529
190703_NVL101_2_01890
190703_NVL101_2_01658
190703_NVL101_2_00716
LBB201_2019_07_03_18_01_00_002311
190521_NVL101_01_00041
190509_LLQ201_01_00009
190511_LLQ301_01_00054
LBB201_2019_07_03_18_01_00_001261
LLQ501_2019_07_16_19_22_22_01316
190511_LLQ101_01_00059
190502_NVL601_01_00363
LLQ501_2019_05_11_16_27_15_19IDs_000136
LBB201_2019_07_03_18_01_00_003361
LLQ301_2019_05_11_16_27_15_26IDs_000646
190509_NVL601_01_00019
190509_LLQ201_01_00382
190511_LLQ301_01_00120
LLQ501_2019_07_16_19_22_22_00108
190511_LLQ101_01_00294
LLQ501_2019_07_16_19_22_22_00181
LLQ501_2019_07_16_19_22_22_00794
LLQ501_2019_07_16_19_22_22_00103
190703_NVL101_2_01387
190703_NVL101_2_00926
LBB301_2019_07_03_18_01_00_21IDs_003331
LLQ501_2019_07_16_19_22_22_00362
LBB301_2019_07_03_18_01_00_21IDs_001711
LBB301_2019_07_03_18_01_00_21IDs_001651
LBB301_2019_07_03_18_01_00_21IDs_000571
190516_LBB301_02_00195
190511_LLQ101_01_00103
LLQ501_2019_07_16_19_22_22_01108
190509_LLQ201_01_00017
LBB301_2019_07_03_18_01_00_21IDs_002896
190502_NVL601_01_00387
190502_NVL601_01_00215
LLQ501_2019_07_16_19_22_22_00139
LBB201_2019_07_03_18_01_00_002671
LBB301_2019_07_03_18_01_00_21IDs_001441
190509_NVL601_01_00037
LBB201_2019_07_03_18_01_00_001471
LBB301_2019_07_03_18_01_00_21IDs_000391
190521_NVL701_01_00140
190703_NVL101_2_00757
190703_NVL101_2_00483
LBB201_2019_07_03_18_01_00_000901
190703_NVL101_2_00625
190509_NVL601_01_00235
190527_LLQ501_01_00181
190502_NVL601_01_00198
190502_NVL601_01_00533
190509_NVL601_01_00268
190521_NVL301_01_00145
190703_NVL101_2_00617
190703_NVL101_2_00751
LLQ301_2019_05_11_16_27_15_26IDs_000286
LLQ301_2019_05_11_16_27_15_26IDs_000391
190521_NVL701_01_00005
190703_NVL101_2_01401